<?xml version="1.0" encoding="utf-8"?>
<!-- Generator: Adobe Illustrator 27.10.0, SVG Export Plug-In . SVG Version: 6.00 Build 0)  -->
<svg version="1.1" xmlns="http://www.w3.org/2000/svg" xmlns:xlink="http://www.w3.org/1999/xlink" x="0px" y="0px"
	 viewBox="0 0 40 40" style="enable-background:new 0 0 40 40;" xml:space="preserve">
<style type="text/css">
	.st0{fill:url(#SVGID_1_);}
	.st1{fill:url(#SVGID_00000174603216050502070720000008564553125370321316_);}
	.st2{fill:url(#SVGID_00000061440942764010026920000015988980160108680123_);}
	.st3{fill:url(#SVGID_00000018221050743657774930000003117530811204077443_);}
</style>
<g id="Layer_2">
</g>
<g id="gitlab-duo">
	<linearGradient id="SVGID_1_" gradientUnits="userSpaceOnUse" x1="2.2718" y1="0.9811" x2="40.1377" y2="32.7543">
		<stop  offset="0" style="stop-color:#FCA326"/>
		<stop  offset="0.1285" style="stop-color:#F4A03B"/>
		<stop  offset="0.3939" style="stop-color:#DE9A71"/>
		<stop  offset="0.7701" style="stop-color:#BB8FC7"/>
		<stop  offset="0.9599" style="stop-color:#A989F5"/>
	</linearGradient>
	<path class="st0" d="M37.8,16.3l-0.1-0.1l-5-13.1c-0.1-0.3-0.3-0.5-0.5-0.6c-0.2-0.1-0.5-0.2-0.8-0.2c-0.3,0-0.5,0.1-0.8,0.3
		c-0.2,0.2-0.4,0.4-0.4,0.7l-3.4,10.3H13.2L9.8,3.3C9.7,3,9.6,2.8,9.3,2.6C9.1,2.5,8.9,2.3,8.6,2.3C8.3,2.3,8,2.4,7.8,2.5
		C7.6,2.7,7.4,2.9,7.3,3.2l-5,13.1l-0.1,0.1C0.8,20.2,2,24.6,5.3,27.1c0,0,0,0,0,0l0,0l7.6,5.7l3.8,2.9l2.3,1.7
		c0.6,0.4,1.3,0.4,1.9,0l2.3-1.7l3.8-2.9l7.7-5.7c0,0,0,0,0,0C38,24.6,39.2,20.2,37.8,16.3z"/>
	
		<linearGradient id="SVGID_00000117652066337703603640000014928133488499594152_" gradientUnits="userSpaceOnUse" x1="38.9189" y1="36.3011" x2="36.5997" y2="38.6203" gradientTransform="matrix(1 0 0 -1 0 42)">
		<stop  offset="0" style="stop-color:#DF4329;stop-opacity:0.9"/>
		<stop  offset="0.7865" style="stop-color:#A686F2"/>
	</linearGradient>
	<path style="fill:url(#SVGID_00000117652066337703603640000014928133488499594152_);" d="M37.6,2.4l-0.2,1.1
		c-0.1,0.3-0.3,0.6-0.7,0.7l-1.1,0.2c-0.2,0-0.2,0.3,0,0.3l1.1,0.2c0.3,0.1,0.6,0.3,0.7,0.7l0.2,1.1c0,0.2,0.3,0.2,0.3,0l0.2-1.1
		c0.1-0.3,0.3-0.6,0.7-0.7l1.1-0.2c0.2,0,0.2-0.3,0-0.3l-1.1-0.2c-0.3-0.1-0.6-0.3-0.7-0.7l-0.2-1.1C37.9,2.2,37.6,2.2,37.6,2.4z"/>
	
		<linearGradient id="SVGID_00000054223923521645426930000003971499246932982147_" gradientUnits="userSpaceOnUse" x1="10.5034" y1="7.3248" x2="4.3686" y2="7.3248" gradientTransform="matrix(1 0 0 -1 0 42)">
		<stop  offset="0.33" style="stop-color:#10AEAE;stop-opacity:0.61"/>
		<stop  offset="0.43" style="stop-color:#1CB3B1;stop-opacity:0.66"/>
		<stop  offset="0.63" style="stop-color:#3BC0B9;stop-opacity:0.79"/>
		<stop  offset="0.91" style="stop-color:#6FD7C6"/>
	</linearGradient>
	<path style="fill:url(#SVGID_00000054223923521645426930000003971499246932982147_);" d="M7.2,31.8l-0.3,1.5
		c-0.1,0.5-0.5,0.8-0.9,0.9l-1.5,0.3c-0.3,0-0.3,0.4,0,0.5L6,35.2c0.5,0.1,0.8,0.5,0.9,0.9l0.3,1.5c0,0.3,0.4,0.3,0.5,0l0.3-1.5
		c0.1-0.5,0.5-0.8,0.9-0.9l1.5-0.3c0.3,0,0.3-0.4,0-0.5l-1.5-0.3c-0.5-0.1-0.8-0.5-0.9-0.9l-0.3-1.5C7.6,31.5,7.3,31.5,7.2,31.8z"/>
	
		<linearGradient id="SVGID_00000101791684232841483630000017122655648455394690_" gradientUnits="userSpaceOnUse" x1="2.8509" y1="10.0256" x2="0.9084" y2="11.9681" gradientTransform="matrix(1 0 0 -1 0 42)">
		<stop  offset="0.33" style="stop-color:#CEB3EF"/>
		<stop  offset="0.91" style="stop-color:#FCA326"/>
	</linearGradient>
	<path style="fill:url(#SVGID_00000101791684232841483630000017122655648455394690_);" d="M1.7,29.2l-0.2,0.9
		c-0.1,0.3-0.3,0.5-0.6,0.6l-0.9,0.2c-0.2,0-0.2,0.3,0,0.3L1,31.3c0.3,0.1,0.5,0.3,0.6,0.6l0.2,0.9c0,0.2,0.3,0.2,0.3,0l0.2-0.9
		c0.1-0.3,0.3-0.5,0.6-0.6l0.9-0.2c0.2,0,0.2-0.3,0-0.3l-0.9-0.2c-0.3-0.1-0.5-0.3-0.6-0.6L2,29.2C2,29.1,1.8,29.1,1.7,29.2z"/>
</g>
</svg>
